en_name,lat_name,generic_name,specific_epithet,en_project_name,lat_project_name
Abyssinian Ground-Thrush,Zoothera piaggiae,Zoothera,piaggiae,abyssinian_ground_thrush,zoothera_piaggiae
African Thrush,Turdus pelios,Turdus,pelios,african_thrush,turdus_pelios
Amami Thrush,Zoothera major,Zoothera,major,amami_thrush,zoothera_major
Amaui,Myadestes woaensis,Myadestes,woaensis,amaui,myadestes_woaensis
American Robin,Turdus migratorius,Turdus,migratorius,american_robin,turdus_migratorius
Andean Slaty-Thrush,Turdus nigriceps,Turdus,nigriceps,andean_slaty_thrush,turdus_nigriceps
Andean Solitaire,Myadestes ralloides,Myadestes,ralloides,andean_solitaire,myadestes_ralloides
Ashy Thrush,Zoothera cinerea,Zoothera,cinerea,ashy_thrush,zoothera_cinerea
Austral Thrush,Turdus falcklandii,Turdus,falcklandii,austral_thrush,turdus_falcklandii
Aztec Thrush,Zoothera pinicola,Zoothera,pinicola,aztec_thrush,zoothera_pinicola
Bare-eyed Thrush,Turdus tephronotus,Turdus,tephronotus,bareeyed_thrush,turdus_tephronotus
Bassian Thrush,Zoothera lunulata,Zoothera,lunulata,bassian_thrush,zoothera_lunulata
Benson’s Rock-Thrush,Monticola bensoni,Monticola,bensoni,bensons_rock_thrush,monticola_bensoni
Bicknell’s Thrush,Catharus bicknelli,Catharus,bicknelli,bicknells_thrush,catharus_bicknelli
Black Solitaire,Entomodestes coracinus,Entomodestes,coracinus,black_solitaire,entomodestes_coracinus
Black Thrush,Turdus infuscatus,Turdus,infuscatus,black_thrush,turdus_infuscatus
Black-billed Nightingale-Thrush,Catharus gracilirostris,Catharus,gracilirostris,blackbilled_nightingale_thrush,catharus_gracilirostris
Black-billed Thrush,Turdus ignobilis,Turdus,ignobilis,blackbilled_thrush,turdus_ignobilis
Black-breasted Thrush,Turdus dissimilis,Turdus,dissimilis,blackbreasted_thrush,turdus_dissimilis
Black-eared Ground-Thrush,Zoothera cameronensis,Zoothera,cameronensis,blackeared_ground_thrush,zoothera_cameronensis
Black-faced Solitaire,Myadestes melanops,Myadestes,melanops,blackfaced_solitaire,myadestes_melanops
Black-headed Nightingale-Thrush,Catharus mexicanus,Catharus,mexicanus,blackheaded_nightingale_thrush,catharus_mexicanus
Black-hooded Thrush,Turdus olivater,Turdus,olivater,blackhooded_thrush,turdus_olivater
Blackbird,Turdus merula,Turdus,merula,blackbird,turdus_merula
Blue Rock-Thrush,Monticola solitarius,Monticola,solitarius,blue_rock_thrush,monticola_solitarius
Blue Whistling-Thrush,Myophonus caeruleus,Myophonus,caeruleus,blue_whistling_thrush,myophonus_caeruleus
Blue-capped Rock-Thrush,Monticola cinclorhynchus,Monticola,cinclorhynchus,bluecapped_rock_thrush,monticola_cinclorhynchus
Bonin Islands Thrush,Zoothera terrestris,Zoothera,terrestris,bonin_islands_thrush,zoothera_terrestris
Brown-backed Solitaire,Myadestes occidentalis,Myadestes,occidentalis,brownbacked_solitaire,myadestes_occidentalis
Brown-headed Thrush,Turdus chrysolaus,Turdus,chrysolaus,brownheaded_thrush,turdus_chrysolaus
Cape Rock-Thrush,Monticola rupestris,Monticola,rupestris,cape_rock_thrush,monticola_rupestris
Chestnut Thrush,Turdus rubrocanus,Turdus,rubrocanus,chestnut_thrush,turdus_rubrocanus
Chestnut-backed Thrush,Zoothera dohertyi,Zoothera,dohertyi,chestnutbacked_thrush,zoothera_dohertyi
Chestnut-bellied Rock-Thrush,Monticola rufiventris,Monticola,rufiventris,chestnutbellied_rock_thrush,monticola_rufiventris
Chestnut-bellied Thrush,Turdus fulviventris,Turdus,fulviventris,chestnutbellied_thrush,turdus_fulviventris
Chestnut-capped Thrush,Zoothera interpres,Zoothera,interpres,chestnutcapped_thrush,zoothera_interpres
Chiguanco Thrush,Turdus chiguanco,Turdus,chiguanco,chiguanco_thrush,turdus_chiguanco
Chinese Song Thrush,Turdus mupinensis,Turdus,mupinensis,chinese_song_thrush,turdus_mupinensis
Clay-coloured Thrush,Turdus grayi,Turdus,grayi,claycoloured_thrush,turdus_grayi
Cocoa Thrush,Turdus fumigatus,Turdus,fumigatus,cocoa_thrush,turdus_fumigatus
Comoro Thrush,Turdus bewsheri,Turdus,bewsheri,comoro_thrush,turdus_bewsheri
Creamy-bellied Thrush,Turdus amaurochalinus,Turdus,amaurochalinus,creamybellied_thrush,turdus_amaurochalinus
Crossley’s Ground-Thrush,Zoothera crossleyi,Zoothera,crossleyi,crossleys_ground_thrush,zoothera_crossleyi
Cuban Solitaire,Myadestes elisabeth,Myadestes,elisabeth,cuban_solitaire,myadestes_elisabeth
Dark-sided Thrush,Zoothera marginata,Zoothera,marginata,darksided_thrush,zoothera_marginata
Dark-throated Thrush,Turdus ruficollis,Turdus,ruficollis,darkthroated_thrush,turdus_ruficollis
Dusky Thrush,Turdus naumanni,Turdus,naumanni,dusky_thrush,turdus_naumanni
Eastern Slaty-Thrush,Turdus subalaris,Turdus,subalaris,eastern_slaty_thrush,turdus_subalaris
Ecuadorian Thrush,Turdus maculirostris,Turdus,maculirostris,ecuadorian_thrush,turdus_maculirostris
Everett’s Thrush,Zoothera everetti,Zoothera,everetti,everetts_thrush,zoothera_everetti
Eyebrowed Thrush,Turdus obscurus,Turdus,obscurus,eyebrowed_thrush,turdus_obscurus
Fawn-breasted Thrush,Zoothera machiki,Zoothera,machiki,fawnbreasted_thrush,zoothera_machiki
Fieldfare,Turdus pilaris,Turdus,pilaris,fieldfare,turdus_pilaris
Finsch’s Flycatcher-Thrush,Neocossyphus finschii,Neocossyphus,finschii,finschs_flycatcher_thrush,neocossyphus_finschii
Forest Rock-Thrush,Monticola sharpei,Monticola,sharpei,forest_rock_thrush,monticola_sharpei
Forest Thrush,Cichlerminia lherminieri,Cichlerminia,lherminieri,forest_thrush,cichlerminia_lherminieri
Geomalia,Geomalia heinrichi,Geomalia,heinrichi,geomalia,geomalia_heinrichi
Glossy-black Thrush,Turdus serranus,Turdus,serranus,glossyblack_thrush,turdus_serranus
Grand Cayman Thrush,Turdus ravidus,Turdus,ravidus,grand_cayman_thrush,turdus_ravidus
Grayson’s Thrush,Turdus graysoni,Turdus,graysoni,graysons_thrush,turdus_graysoni
Great Thrush,Turdus fuscater,Turdus,fuscater,great_thrush,turdus_fuscater
Grey Ground-Thrush,Zoothera princei,Zoothera,princei,grey_ground_thrush,zoothera_princei
Grey-backed Thrush,Turdus hortulorum,Turdus,hortulorum,greybacked_thrush,turdus_hortulorum
Grey-cheeked Thrush,Catharus minimus,Catharus,minimus,greycheeked_thrush,catharus_minimus
Grey-sided Thrush,Turdus feae,Turdus,feae,greysided_thrush,turdus_feae
Grey-winged Blackbird,Turdus boulboul,Turdus,boulboul,greywinged_blackbird,turdus_boulboul
Groundscraper Thrush,Psophocichla litsitsirupa,Psophocichla,litsitsirupa,groundscraper_thrush,psophocichla_litsitsirupa
Guadalcanal Thrush,Zoothera turipavae,Zoothera,turipavae,guadalcanal_thrush,zoothera_turipavae
Hauxwell’s Thrush,Turdus hauxwelli,Turdus,hauxwelli,hauxwells_thrush,turdus_hauxwelli
Hermit Thrush,Catharus guttatus,Catharus,guttatus,hermit_thrush,catharus_guttatus
Horsfield’s Thrush,Zoothera horsfieldi,Zoothera,horsfieldi,horsfields_thrush,zoothera_horsfieldi
Island Thrush,Turdus poliocephalus,Turdus,poliocephalus,island_thrush,turdus_poliocephalus
Izu Islands Thrush,Turdus celaenops,Turdus,celaenops,izu_islands_thrush,turdus_celaenops
Japanese Thrush,Turdus cardis,Turdus,cardis,japanese_thrush,turdus_cardis
Kamao,Myadestes myadestinus,Myadestes,myadestinus,kamao,myadestes_myadestinus
Kessler’s Thrush,Turdus kessleri,Turdus,kessleri,kesslers_thrush,turdus_kessleri
Kurrichane Thrush,Turdus libonyanus,Turdus,libonyanus,kurrichane_thrush,turdus_libonyanus
La Selle Thrush,Turdus swalesi,Turdus,swalesi,la_selle_thrush,turdus_swalesi
Lawrence’s Thrush,Turdus lawrencii,Turdus,lawrencii,lawrences_thrush,turdus_lawrencii
Little Rock-Thrush,Monticola rufocinereus,Monticola,rufocinereus,little_rock_thrush,monticola_rufocinereus
Littoral Rock-Thrush,Monticola imerinus,Monticola,imerinus,littoral_rock_thrush,monticola_imerinus
Long-billed Thrush,Zoothera monticola,Zoothera,monticola,longbilled_thrush,zoothera_monticola
Long-tailed Thrush,Zoothera dixoni,Zoothera,dixoni,longtailed_thrush,zoothera_dixoni
Malabar Whistling-Thrush,Myophonus horsfieldi,Myophonus,horsfieldi,malabar_whistling_thrush,myophonus_horsfieldi
Malayan Whistling-Thrush,Myophonus robinsoni,Myophonus,robinsoni,malayan_whistling_thrush,myophonus_robinsoni
Marañón Thrush,Turdus maranonicus,Turdus,maranonicus,marañón_thrush,turdus_maranonicus
Miombo Rock-Thrush,Monticola angolensis,Monticola,angolensis,miombo_rock_thrush,monticola_angolensis
Mistle Thrush,Turdus viscivorus,Turdus,viscivorus,mistle_thrush,turdus_viscivorus
Moluccan Thrush,Zoothera dumasi,Zoothera,dumasi,moluccan_thrush,zoothera_dumasi
Mountain Thrush,Turdus plebejus,Turdus,plebejus,mountain_thrush,turdus_plebejus
New Britain Thrush,Zoothera talaseae,Zoothera,talaseae,new_britain_thrush,zoothera_talaseae
Oberlaender’s Ground-Thrush,Zoothera oberlaenderi,Zoothera,oberlaenderi,oberlaenders_ground_thrush,zoothera_oberlaenderi
Olivaceous Thrush,Turdus olivaceofuscus,Turdus,olivaceofuscus,olivaceous_thrush,turdus_olivaceofuscus
Olive Thrush,Turdus olivaceus,Turdus,olivaceus,olive_thrush,turdus_olivaceus
Olomao,Myadestes lanaiensis,Myadestes,lanaiensis,olomao,myadestes_lanaiensis
Omao,Myadestes obscurus,Myadestes,obscurus,omao,myadestes_obscurus
Orange Ground-Thrush,Zoothera gurneyi,Zoothera,gurneyi,orange_ground_thrush,zoothera_gurneyi
Orange-billed Nightingale-Thrush,Catharus aurantiirostris,Catharus,aurantiirostris,orangebilled_nightingale_thrush,catharus_aurantiirostris
Orange-headed Thrush,Zoothera citrina,Zoothera,citrina,orangeheaded_thrush,zoothera_citrina
Orange-sided Thrush,Zoothera peronii,Zoothera,peronii,orangesided_thrush,zoothera_peronii
Pale Thrush,Turdus pallidus,Turdus,pallidus,pale_thrush,turdus_pallidus
Pale-breasted Thrush,Turdus leucomelas,Turdus,leucomelas,palebreasted_thrush,turdus_leucomelas
Pale-eyed Thrush,Platycichla leucops,Platycichla,leucops,paleeyed_thrush,platycichla_leucops
Pale-vented Thrush,Turdus obsoletus,Turdus,obsoletus,palevented_thrush,turdus_obsoletus
Pied Thrush,Zoothera wardii,Zoothera,wardii,pied_thrush,zoothera_wardii
Plain-backed Thrush,Zoothera mollissima,Zoothera,mollissima,plainbacked_thrush,zoothera_mollissima
Plumbeous-backed Thrush,Turdus reevei,Turdus,reevei,plumbeousbacked_thrush,turdus_reevei
Puaiohi,Myadestes palmeri,Myadestes,palmeri,puaiohi,myadestes_palmeri
Red-backed Thrush,Zoothera erythronota,Zoothera,erythronota,redbacked_thrush,zoothera_erythronota
Red-legged Thrush,Turdus plumbeus,Turdus,plumbeus,redlegged_thrush,turdus_plumbeus
Red-tailed Ant-Thrush,Neocossyphus rufus,Neocossyphus,rufus,redtailed_ant_thrush,neocossyphus_rufus
Redwing,Turdus iliacus,Turdus,iliacus,redwing,turdus_iliacus
Ring Ouzel,Turdus torquatus,Turdus,torquatus,ring_ouzel,turdus_torquatus
Rock Thrush,Monticola saxatilis,Monticola,saxatilis,rock_thrush,monticola_saxatilis
Ruddy-capped Nightingale-Thrush,Catharus frantzii,Catharus,frantzii,ruddycapped_nightingale_thrush,catharus_frantzii
Rufous Flycatcher-Thrush,Neocossyphus fraseri,Neocossyphus,fraseri,rufous_flycatcher_thrush,neocossyphus_fraseri
Rufous-backed Thrush,Turdus rufopalliatus,Turdus,rufopalliatus,rufousbacked_thrush,turdus_rufopalliatus
Rufous-bellied Thrush,Turdus rufiventris,Turdus,rufiventris,rufousbellied_thrush,turdus_rufiventris
Rufous-brown Solitaire,Cichlopsis leucogenys,Cichlopsis,leucogenys,rufousbrown_solitaire,cichlopsis_leucogenys
Rufous-collared Thrush,Turdus rufitorques,Turdus,rufitorques,rufouscollared_thrush,turdus_rufitorques
Rufous-throated Solitaire,Myadestes genibarbis,Myadestes,genibarbis,rufousthroated_solitaire,myadestes_genibarbis
Russet Nightingale-Thrush,Catharus occidentalis,Catharus,occidentalis,russet_nightingale_thrush,catharus_occidentalis
Russet-tailed Thrush,Zoothera heinei,Zoothera,heinei,russettailed_thrush,zoothera_heinei
San Cristobal Thrush,Zoothera margaretae,Zoothera,margaretae,san_cristobal_thrush,zoothera_margaretae
Sentinel Rock-Thrush,Monticola explorator,Monticola,explorator,sentinel_rock_thrush,monticola_explorator
Shiny Whistling-Thrush,Myophonus melanurus,Myophonus,melanurus,shiny_whistling_thrush,myophonus_melanurus
Short-toed Rock-Thrush,Monticola brevipes,Monticola,brevipes,shorttoed_rock_thrush,monticola_brevipes
Siberian Thrush,Zoothera sibirica,Zoothera,sibirica,siberian_thrush,zoothera_sibirica
Slate-coloured Solitaire,Myadestes unicolor,Myadestes,unicolor,slatecoloured_solitaire,myadestes_unicolor
Slaty-backed Nightingale-Thrush,Catharus fuscater,Catharus,fuscater,slatybacked_nightingale_thrush,catharus_fuscater
Slaty-backed Thrush,Zoothera schistacea,Zoothera,schistacea,slatybacked_thrush,zoothera_schistacea
Song Thrush,Turdus philomelos,Turdus,philomelos,song_thrush,turdus_philomelos
Sooty Thrush,Turdus nigrescens,Turdus,nigrescens,sooty_thrush,turdus_nigrescens
Spot-winged Thrush,Zoothera spiloptera,Zoothera,spiloptera,spotwinged_thrush,zoothera_spiloptera
Spotted Ground-Thrush,Zoothera guttata,Zoothera,guttata,spotted_ground_thrush,zoothera_guttata
Spotted Nightingale-Thrush,Catharus dryas,Catharus,dryas,spotted_nightingale_thrush,catharus_dryas
Sri Lanka Whistling-Thrush,Myophonus blighi,Myophonus,blighi,sri_lanka_whistling_thrush,myophonus_blighi
Sulawesi Thrush,Cataponera turdoides,Cataponera,turdoides,sulawesi_thrush,cataponera_turdoides
Sunda Thrush,Zoothera andromedae,Zoothera,andromedae,sunda_thrush,zoothera_andromedae
Sunda Whistling-Thrush,Myophonus glaucinus,Myophonus,glaucinus,sunda_whistling_thrush,myophonus_glaucinus
Swainson’s Thrush,Catharus ustulatus,Catharus,ustulatus,swainsons_thrush,catharus_ustulatus
Taiwan Whistling-Thrush,Myophonus insularis,Myophonus,insularis,taiwan_whistling_thrush,myophonus_insularis
Tickell’s Thrush,Turdus unicolor,Turdus,unicolor,tickells_thrush,turdus_unicolor
Townsend’s Solitaire,Myadestes townsendi,Myadestes,townsendi,townsends_solitaire,myadestes_townsendi
Tristan Thrush,Nesocichla eremita,Nesocichla,eremita,tristan_thrush,nesocichla_eremita
Unicolored Thrush,Turdus haplochrous,Turdus,haplochrous,unicolored_thrush,turdus_haplochrous
Varied Solitaire,Myadestes coloratus,Myadestes,coloratus,varied_solitaire,myadestes_coloratus
Varied Thrush,Zoothera naevia,Zoothera,naevia,varied_thrush,zoothera_naevia
Veery,Catharus fuscescens,Catharus,fuscescens,veery,catharus_fuscescens
White-chinned Thrush,Turdus aurantius,Turdus,aurantius,whitechinned_thrush,turdus_aurantius
White-collared Blackbird,Turdus albocinctus,Turdus,albocinctus,whitecollared_blackbird,turdus_albocinctus
White-eared Solitaire,Entomodestes leucotis,Entomodestes,leucotis,whiteeared_solitaire,entomodestes_leucotis
White-eyed Thrush,Turdus jamaicensis,Turdus,jamaicensis,whiteeyed_thrush,turdus_jamaicensis
White-necked Thrush,Turdus albicollis,Turdus,albicollis,whitenecked_thrush,turdus_albicollis
White-tailed Ant-Thrush,Neocossyphus poensis,Neocossyphus,poensis,whitetailed_ant_thrush,neocossyphus_poensis
White-throated Rock-Thrush,Monticola gularis,Monticola,gularis,whitethroated_rock_thrush,monticola_gularis
White-throated Thrush,Turdus assimilis,Turdus,assimilis,whitethroated_thrush,turdus_assimilis
White’s Thrush,Zoothera dauma,Zoothera,dauma,whites_thrush,zoothera_dauma
Wood Thrush,Catharus mustelina,Catharus,mustelina,wood_thrush,catharus_mustelina
Yellow-eyed Thrush,Turdus nudigenis,Turdus,nudigenis,yelloweyed_thrush,turdus_nudigenis
Yellow-legged Thrush,Platycichla flavipes,Platycichla,flavipes,yellowlegged_thrush,platycichla_flavipes
Yemen Thrush,Turdus menachensis,Turdus,menachensis,yemen_thrush,turdus_menachensis
